<svg width="48" height="48" viewBox="0 0 48 48" fill="none" xmlns="http://www.w3.org/2000/svg">
<path fill-rule="evenodd" clip-rule="evenodd" d="M5.75736 9.75736C6.88258 8.63214 8.4087 8 10 8H30C31.5913 8 33.1174 8.63214 34.2426 9.75736C35.3679 10.8826 36 12.4087 36 14V16H38C39.5913 16 41.1174 16.6321 42.2426 17.7574C43.3679 18.8826 44 20.4087 44 22V34C44 35.5913 43.3679 37.1174 42.2426 38.2426C41.1174 39.3679 39.5913 40 38 40H18C16.4087 40 14.8826 39.3679 13.7574 38.2426C12.6321 37.1174 12 35.5913 12 34V32H10C8.4087 32 6.88258 31.3679 5.75736 30.2426C4.63214 29.1174 4 27.5913 4 26V14C4 12.4087 4.63214 10.8826 5.75736 9.75736ZM16 34C16 34.5304 16.2107 35.0391 16.5858 35.4142C16.9609 35.7893 17.4696 36 18 36H38C38.5304 36 39.0391 35.7893 39.4142 35.4142C39.7893 35.0391 40 34.5304 40 34V22C40 21.4696 39.7893 20.9609 39.4142 20.5858C39.0391 20.2107 38.5304 20 38 20H18C17.4696 20 16.9609 20.2107 16.5858 20.5858C16.2107 20.9609 16 21.4696 16 22V34ZM32 16H18C16.4087 16 14.8826 16.6321 13.7574 17.7574C12.6321 18.8826 12 20.4087 12 22V28H10C9.46957 28 8.96086 27.7893 8.58579 27.4142C8.21071 27.0391 8 26.5304 8 26V14C8 13.4696 8.21071 12.9609 8.58579 12.5858C8.96086 12.2107 9.46957 12 10 12H30C30.5304 12 31.0391 12.2107 31.4142 12.5858C31.7893 12.9609 32 13.4696 32 14V16ZM28 26C27.4696 26 26.9609 26.2107 26.5858 26.5858C26.2107 26.9609 26 27.4696 26 28C26 28.5304 26.2107 29.0391 26.5858 29.4142C26.9609 29.7893 27.4696 30 28 30C28.5304 30 29.0391 29.7893 29.4142 29.4142C29.7893 29.0391 30 28.5304 30 28C30 27.4696 29.7893 26.9609 29.4142 26.5858C29.0391 26.2107 28.5304 26 28 26ZM23.7574 23.7574C24.8826 22.6321 26.4087 22 28 22C29.5913 22 31.1174 22.6321 32.2426 23.7574C33.3679 24.8826 34 26.4087 34 28C34 29.5913 33.3679 31.1174 32.2426 32.2426C31.1174 33.3679 29.5913 34 28 34C26.4087 34 24.8826 33.3679 23.7574 32.2426C22.6321 31.1174 22 29.5913 22 28C22 26.4087 22.6321 24.8826 23.7574 23.7574Z" fill="#286484"/>
</svg>
