<svg width="48" height="48" viewBox="0 0 48 48" fill="none" xmlns="http://www.w3.org/2000/svg">
<path fill-rule="evenodd" clip-rule="evenodd" d="M24.0002 6.11C24.0002 5.54089 23.7577 4.99873 23.3336 4.61931C22.9094 4.2399 22.3436 4.05916 21.7781 4.12237C18.0347 4.5407 14.4856 6.00751 11.5391 8.35396C8.59269 10.7004 6.36865 13.8311 5.123 17.3858C3.87735 20.9405 3.66072 24.7747 4.49805 28.4471C5.33537 32.1194 7.19261 35.4808 9.85601 38.1442C12.5194 40.8076 15.8807 42.6648 19.5531 43.5021C23.2255 44.3395 27.0597 44.1228 30.6144 42.8772C34.169 41.6315 37.2998 39.4075 39.6462 36.461C41.9927 33.5146 43.4595 29.9654 43.8778 26.2221C43.941 25.6565 43.7603 25.0908 43.3809 24.6666C43.0014 24.2424 42.4593 24 41.8902 24H24.0002V6.11ZM14.031 11.483C15.7961 10.0773 17.8316 9.06622 20.0002 8.50645V26C20.0002 27.1046 20.8956 28 22.0002 28H39.4937C38.934 30.1686 37.9229 32.2041 36.5172 33.9692C34.64 36.3264 32.1354 38.1057 29.2915 39.1022C26.4477 40.0988 23.3803 40.2721 20.4423 39.6022C17.5043 38.9324 14.8152 37.4465 12.6844 35.3157C10.5537 33.185 9.06783 30.4958 8.39796 27.5579C7.72809 24.6199 7.90139 21.5525 8.89794 18.7087C9.89448 15.8648 11.6738 13.3602 14.031 11.483ZM30.6689 5.1391C30.0566 4.92189 29.377 5.01559 28.8464 5.39038C28.3157 5.76517 28.0002 6.37434 28.0002 7.024V18C28.0002 19.1046 28.8956 20 30.0002 20H40.9762C41.6258 20 42.235 19.6845 42.6098 19.1538C42.9846 18.6232 43.0783 17.9435 42.8611 17.3313C41.8637 14.5201 40.2517 11.9669 38.1425 9.85766C36.0333 7.74846 33.4801 6.13645 30.6689 5.1391ZM32.0002 16V10.1413C33.2074 10.8395 34.3221 11.6941 35.3141 12.6861C36.3061 13.6781 37.1607 14.7928 37.8589 16H32.0002Z" fill="#286484"/>
</svg>
