<svg width="80" height="75" viewBox="0 0 80 75" fill="none" xmlns="http://www.w3.org/2000/svg">
<path fill-rule="evenodd" clip-rule="evenodd" d="M7.04794 0.199951H72.8559C76.3039 0.199951 79.104 2.99995 79.12 6.44795V56.072C79.12 59.52 76.32 62.32 72.872 62.32H48.9599L50.336 67.832C50.744 69.472 52.584 70.904 54.272 70.904H63.304C64.256 70.904 65.032 71.68 65.032 72.632C65.032 73.584 64.256 74.36 63.304 74.36H16.616C15.664 74.36 14.888 73.584 14.888 72.632C14.888 71.68 15.664 70.904 16.616 70.904H25.6479C27.3359 70.904 29.176 69.472 29.584 67.832L30.9599 62.32H7.04794C3.59994 62.32 0.799988 59.52 0.799988 56.072V6.44795C0.799988 2.99995 3.59994 0.199951 7.04794 0.199951ZM32.936 68.672C32.744 69.448 32.4 70.208 31.928 70.904H47.984C47.512 70.208 47.168 69.456 46.976 68.672L45.384 62.32H34.528L32.936 68.672ZM75.6479 56.064V53.048H4.26395V56.064C4.26395 57.6 5.51194 58.848 7.04794 58.848H72.8559C74.3999 58.848 75.6479 57.6 75.6479 56.064ZM75.6399 23.0813V8.16796H4.25594V49.584H5.15995H9.19198C9.43198 47.736 11.656 44.144 15.824 42.896C16.5488 42.6785 17.4048 42.4742 18.3803 42.2414C18.4816 42.2173 18.5842 42.1928 18.688 42.168C25.08 40.648 35.784 38.096 45.336 26.6C49.92 21.24 55.12 18.36 60.784 18.024C66.835 17.6722 72.3908 20.4035 75.6399 23.0813ZM4.85594 4.71195H75.0399C74.5199 4.05595 73.7199 3.65596 72.8479 3.65596H7.03993C6.17593 3.65596 5.37594 4.05595 4.85594 4.71195ZM41.68 56.064C41.68 57.016 40.9039 57.792 39.9519 57.792C38.9999 57.792 38.224 57.016 38.224 56.064C38.224 55.112 38.9999 54.3359 39.9519 54.3359C40.9039 54.3359 41.68 55.112 41.68 56.064Z" fill="#286484"/>
</svg>
