<svg width="112" height="112" viewBox="0 0 112 112" fill="none" xmlns="http://www.w3.org/2000/svg">
<path fill-rule="evenodd" clip-rule="evenodd" d="M37.8 28.7C37.8 31.7928 35.2928 34.3 32.2 34.3C29.1073 34.3 26.6 31.7928 26.6 28.7C26.6 25.6073 29.1073 23.1 32.2 23.1C35.2928 23.1 37.8 25.6073 37.8 28.7ZM32.2 37.1C36.4836 37.1 40.0184 33.8937 40.5351 29.75H65.9751C72.8372 29.75 78.4001 35.3129 78.4001 42.175C78.4001 49.0372 72.8372 54.6 65.9751 54.6H45.85C37.5382 54.6 30.8 61.3382 30.8 69.6501C30.8 77.9619 37.5382 84.7001 45.85 84.7001H63.1201L58.5101 89.3101C57.9634 89.8568 57.9634 90.7433 58.5101 91.29C59.0568 91.8367 59.9433 91.8367 60.49 91.29L67.49 84.29C68.0367 83.7433 68.0367 82.8568 67.49 82.3101L60.49 75.3101C59.9433 74.7634 59.0568 74.7634 58.5101 75.3101C57.9634 75.8568 57.9634 76.7433 58.5101 77.29L63.1202 81.9001H45.85C39.0846 81.9001 33.6 76.4155 33.6 69.6501C33.6 62.8846 39.0846 57.4001 45.85 57.4001H65.9751C74.3836 57.4001 81.2001 50.5836 81.2001 42.175C81.2001 33.7665 74.3836 26.95 65.9751 26.95H40.4175C39.6124 23.1508 36.2391 20.3 32.2 20.3C27.5609 20.3 23.8 24.0609 23.8 28.7C23.8 33.3392 27.5609 37.1 32.2 37.1ZM85.4001 83.3001C85.4001 86.3928 82.8928 88.9001 79.8001 88.9001C76.7073 88.9001 74.2 86.3928 74.2 83.3001C74.2 80.2073 76.7073 77.7 79.8001 77.7C82.8928 77.7 85.4001 80.2073 85.4001 83.3001ZM88.2001 83.3001C88.2001 87.9392 84.4392 91.7001 79.8001 91.7001C75.1609 91.7001 71.4 87.9392 71.4 83.3001C71.4 78.6609 75.1609 74.9 79.8001 74.9C84.4392 74.9 88.2001 78.6609 88.2001 83.3001Z" fill="#286484"/>
</svg>
