<svg width="48" height="48" viewBox="0 0 48 48" fill="none" xmlns="http://www.w3.org/2000/svg">
<path fill-rule="evenodd" clip-rule="evenodd" d="M14.1891 11.3607L18.4867 15.6583C20.1098 14.5851 22.0242 14 24 14C25.9758 14 27.8902 14.5851 29.5133 15.6583L33.8109 11.3607C31.0195 9.1939 27.5713 8 24 8C20.4287 8 16.9805 9.1939 14.1891 11.3607ZM36.6393 14.1891L32.3417 18.4867C33.4149 20.1098 34 22.0242 34 24C34 25.9758 33.4149 27.8902 32.3417 29.5133L36.6392 33.8108C37.513 32.685 38.2344 31.4451 38.7821 30.1229C39.5861 28.1817 40 26.1012 40 24C40 20.4287 38.8061 16.9805 36.6393 14.1891ZM33.8108 36.6392L29.5133 32.3417C27.8902 33.4149 25.9758 34 24 34C22.0242 34 20.1098 33.4149 18.4867 32.3417L14.1892 36.6392C15.315 37.513 16.5549 38.2344 17.8771 38.7821C19.8183 39.5861 21.8988 40 24 40C26.1012 40 28.1817 39.5861 30.1229 38.7821C31.4451 38.2344 32.685 37.513 33.8108 36.6392ZM11.3608 33.8108L15.6583 29.5133C14.5851 27.8902 14 25.9758 14 24C14 22.0242 14.5851 20.1098 15.6583 18.4867L11.3607 14.1891C9.1939 16.9805 8 20.4287 8 24C8 26.1012 8.41385 28.1817 9.21793 30.1229C9.7656 31.4451 10.487 32.685 11.3608 33.8108ZM9.85779 9.85779C13.6085 6.10704 18.6957 4 24 4C29.3043 4 34.3915 6.10704 38.1422 9.85779C41.893 13.6085 44 18.6957 44 24C44 26.6264 43.4827 29.2272 42.4776 31.6537C41.4725 34.0801 39.9994 36.285 38.1422 38.1422C36.285 39.9994 34.0801 41.4725 31.6537 42.4776C29.2272 43.4827 26.6264 44 24 44C21.3736 44 18.7728 43.4827 16.3463 42.4776C13.9199 41.4725 11.715 39.9994 9.85779 38.1422C8.00057 36.285 6.52748 34.0801 5.52241 31.6537C4.51732 29.2272 4 26.6264 4 24C4 18.6957 6.10704 13.6085 9.85779 9.85779ZM24 18C22.4095 18 20.884 18.6324 19.7582 19.7582C18.6324 20.884 18 22.4095 18 24C18 25.5905 18.6324 27.116 19.7582 28.2418C20.884 29.3676 22.4095 30 24 30C25.5905 30 27.116 29.3676 28.2418 28.2418C29.3676 27.116 30 25.5905 30 24C30 22.4095 29.3676 20.884 28.2418 19.7582C27.116 18.6324 25.5905 18 24 18Z" fill="#286484"/>
</svg>
